{
  "email_from": "myasset.dev@gmail.com",
  "email_server": "myasset.dev@gmail.com",
  "email_tls": true,
  "email_host": "smtp.gmail.com",
  "email_host_user": "myasset.dev@gmail.com",
  "email_host_pass": "no_password",
  "email_port": 587,
  "mail": false
}